Basic water balance • medfate
…
shinyplot(S)

Extracting output

Simulation outputs in form of lists have a nested structure that is
not easy to handle. Functions are provided to extract model outputs as
data.frame objects. The following code extracts daily
series of stand-level variables, including their units:

extract(S, "forest", addunits = TRUE) |>
  tibble::as_tibble()

## # A tibble: 365 × 31
##    date           PET Precipitation    Rain   Snow NetRain Snowmelt Infiltration
##    <date>     [L/m^2]       [L/m^2] [L/m^2] [L/m^… [L/m^2]  [L/m^2]      [L/m^2]
##  1 2001-01-01   0.883          4.87    4.87   0      3.30      0           3.30 
##  2 2001-01-02   1.64           2.50    2.50   0      0.972     0           0.972
##  3 2001-01-03   1.30           0       0      0      0         0           0    
##  4 2001-01-04   0.569          5.80    5.80   0      4.24      0           4.24 
##  5 2001-01-05   1.68           1.88    1.88   0      0.733     0           0.733
##  6 2001-01-06   1.21          13.4    13.4    0     11.6       0          11.6  
##  7 2001-01-07   0.637          5.38    0      5.38   0         0           0    
##  8 2001-01-08   0.832          0       0      0      0         0           0    
##  9 2001-01-09   1.98           0       0      0      0         0           0    
## 10 2001-01-10   0.829          5.12    5.12   0      3.55      5.38        8.92 
## # ℹ 355 more rows
## # ℹ 23 more variables: InfiltrationExcess [L/m^2], SaturationExcess [L/m^2],
## #   Runoff [L/m^2], DeepDrainage [L/m^2], CapillarityRise [L/m^2],
## #   Evapotranspiration [L/m^2], Interception [L/m^2], SoilEvaporation [L/m^2],
## #   HerbTranspiration [L/m^2], PlantExtraction [L/m^2], Transpiration [L/m^2],
## #   MistletoeTranspiration [L/m^2], HydraulicRedistribution [L/m^2],
## #   LAI [m^2/m^2], LAIherb [m^2/m^2], LAIlive [m^2/m^2], …

And a similar code can be used to daily series of cohort-level
variables:

extract(S, "cohort", addunits = TRUE) |>
  tibble::as_tibble()

## # A tibble: 1,095 × 17
##    date       cohort species               LAI LAIlive FPAR AbsorbedSWRFraction
##    <date>     <chr>  <chr>            [m^2/m^… [m^2/m…  [%]               <dbl>
##  1 2001-01-01 T1_148 Pinus halepensis     1.21    1.21 88.6                44.4
##  2 2001-01-02 T1_148 Pinus halepensis     1.21    1.21 88.6                44.4
##  3 2001-01-03 T1_148 Pinus halepensis     1.21    1.21 88.6                44.4
##  4 2001-01-04 T1_148 Pinus halepensis     1.21    1.21 88.6                44.4
##  5 2001-01-05 T1_148 Pinus halepensis     1.21    1.21 88.6                44.4
##  6 2001-01-06 T1_148 Pinus halepensis     1.21    1.21 88.6                44.4
##  7 2001-01-07 T1_148 Pinus halepensis     1.21    1.21 88.6                44.4
##  8 2001-01-08 T1_148 Pinus halepensis     1.21    1.21 88.6                44.4
##  9 2001-01-09 T1_148 Pinus halepensis     1.21    1.21 88.6                44.4
## 10 2001-01-10 T1_148 Pinus halepensis     1.21    1.21 88.6                44.4
## # ℹ 1,085 more rows
## # ℹ 10 more variables: Transpiration [L/m^2], GrossPhotosynthesis [L/m^2],
## #   PlantPsi [MPa], LeafPLC <dbl>, StemPLC <dbl>, PlantWaterBalance [L/m^2],
## #   LeafRWC [%], StemRWC [%], LFMC [%], PlantStress <dbl>
…
